<?xml version="1.0" encoding="utf-8"?>
<!DOCTYPE eagle SYSTEM "eagle.dtd">
<eagle version="9.0.1">
<drawing>
<settings>
<setting alwaysvectorfont="no"/>
<setting verticaltext="up"/>
</settings>
<grid distance="0.1" unitdist="inch" unit="inch" style="lines" multiple="1" display="yes" altdistance="0.01" altunitdist="inch" altunit="inch"/>
<layers>
<layer number="1" name="Top" color="47" fill="1" visible="yes" active="yes"/>
<layer number="16" name="Bottom" color="1" fill="1" visible="yes" active="yes"/>
<layer number="17" name="Pads" color="2" fill="1" visible="yes" active="yes"/>
<layer number="18" name="Vias" color="2" fill="1" visible="yes" active="yes"/>
<layer number="19" name="Unrouted" color="6" fill="1" visible="yes" active="yes"/>
<layer number="20" name="Dimension" color="24" fill="1" visible="yes" active="yes"/>
<layer number="21" name="tPlace" color="7" fill="1" visible="yes" active="yes"/>
<layer number="22" name="bPlace" color="7" fill="1" visible="yes" active="yes"/>
<layer number="23" name="tOrigins" color="15" fill="1" visible="yes" active="yes"/>
<layer number="24" name="bOrigins" color="15" fill="1" visible="yes" active="yes"/>
<layer number="25" name="tNames" color="7" fill="1" visible="yes" active="yes"/>
<layer number="26" name="bNames" color="7" fill="1" visible="yes" active="yes"/>
<layer number="27" name="tValues" color="7" fill="1" visible="yes" active="yes"/>
<layer number="28" name="bValues" color="7" fill="1" visible="yes" active="yes"/>
<layer number="29" name="tStop" color="7" fill="3" visible="no" active="yes"/>
<layer number="30" name="bStop" color="7" fill="6" visible="no" active="yes"/>
<layer number="31" name="tCream" color="7" fill="4" visible="no" active="yes"/>
<layer number="32" name="bCream" color="7" fill="5" visible="no" active="yes"/>
<layer number="33" name="tFinish" color="6" fill="3" visible="no" active="yes"/>
<layer number="34" name="bFinish" color="6" fill="6" visible="no" active="yes"/>
<layer number="35" name="tGlue" color="7" fill="4" visible="no" active="yes"/>
<layer number="36" name="bGlue" color="7" fill="5" visible="no" active="yes"/>
<layer number="37" name="tTest" color="7" fill="1" visible="no" active="yes"/>
<layer number="38" name="bTest" color="7" fill="1" visible="no" active="yes"/>
<layer number="39" name="tKeepout" color="4" fill="11" visible="yes" active="yes"/>
<layer number="40" name="bKeepout" color="1" fill="11" visible="yes" active="yes"/>
<layer number="41" name="tRestrict" color="4" fill="10" visible="yes" active="yes"/>
<layer number="42" name="bRestrict" color="1" fill="10" visible="yes" active="yes"/>
<layer number="43" name="vRestrict" color="2" fill="10" visible="yes" active="yes"/>
<layer number="44" name="Drills" color="7" fill="1" visible="no" active="yes"/>
<layer number="45" name="Holes" color="7" fill="1" visible="no" active="yes"/>
<layer number="46" name="Milling" color="3" fill="1" visible="no" active="yes"/>
<layer number="47" name="Measures" color="7" fill="1" visible="no" active="yes"/>
<layer number="48" name="Document" color="7" fill="1" visible="yes" active="yes"/>
<layer number="49" name="Reference" color="7" fill="1" visible="yes" active="yes"/>
<layer number="50" name="dxf" color="7" fill="1" visible="no" active="no"/>
<layer number="51" name="tDocu" color="7" fill="1" visible="yes" active="yes"/>
<layer number="52" name="bDocu" color="7" fill="1" visible="yes" active="yes"/>
<layer number="53" name="tGND_GNDA" color="7" fill="9" visible="no" active="no"/>
<layer number="54" name="bGND_GNDA" color="1" fill="9" visible="no" active="no"/>
<layer number="56" name="wert" color="7" fill="1" visible="no" active="no"/>
<layer number="57" name="tCAD" color="7" fill="1" visible="no" active="no"/>
<layer number="59" name="tCarbon" color="7" fill="1" visible="no" active="no"/>
<layer number="60" name="bCarbon" color="7" fill="1" visible="no" active="no"/>
<layer number="88" name="SimResults" color="9" fill="1" visible="no" active="no"/>
<layer number="89" name="SimProbes" color="9" fill="1" visible="no" active="no"/>
<layer number="90" name="Modules" color="5" fill="1" visible="no" active="no"/>
<layer number="91" name="Nets" color="2" fill="1" visible="no" active="no"/>
<layer number="92" name="Busses" color="1" fill="1" visible="no" active="no"/>
<layer number="93" name="Pins" color="2" fill="1" visible="no" active="no"/>
<layer number="94" name="Symbols" color="4" fill="1" visible="no" active="no"/>
<layer number="95" name="Names" color="7" fill="1" visible="no" active="no"/>
<layer number="96" name="Values" color="7" fill="1" visible="no" active="no"/>
<layer number="97" name="Info" color="7" fill="1" visible="no" active="no"/>
<layer number="98" name="Guide" color="6" fill="1" visible="no" active="no"/>
<layer number="99" name="SpiceOrder" color="7" fill="1" visible="no" active="no"/>
<layer number="100" name="Muster" color="7" fill="1" visible="no" active="no"/>
<layer number="101" name="Patch_Top" color="12" fill="4" visible="yes" active="yes"/>
<layer number="102" name="Vscore" color="7" fill="1" visible="yes" active="yes"/>
<layer number="103" name="tMap" color="7" fill="1" visible="yes" active="yes"/>
<layer number="104" name="Name" color="16" fill="1" visible="yes" active="yes"/>
<layer number="105" name="tPlate" color="7" fill="1" visible="yes" active="yes"/>
<layer number="106" name="bPlate" color="7" fill="1" visible="yes" active="yes"/>
<layer number="107" name="Crop" color="7" fill="1" visible="yes" active="yes"/>
<layer number="108" name="tplace-old" color="10" fill="1" visible="yes" active="yes"/>
<layer number="109" name="ref-old" color="11" fill="1" visible="yes" active="yes"/>
<layer number="110" name="fp0" color="7" fill="1" visible="yes" active="yes"/>
<layer number="111" name="LPC17xx" color="7" fill="1" visible="yes" active="yes"/>
<layer number="112" name="tSilk" color="7" fill="1" visible="yes" active="yes"/>
<layer number="113" name="IDFDebug" color="4" fill="1" visible="yes" active="yes"/>
<layer number="114" name="Badge_Outline" color="7" fill="1" visible="yes" active="yes"/>
<layer number="115" name="ReferenceISLANDS" color="7" fill="1" visible="yes" active="yes"/>
<layer number="116" name="Patch_BOT" color="9" fill="4" visible="yes" active="yes"/>
<layer number="117" name="BACKMAAT1" color="7" fill="1" visible="yes" active="yes"/>
<layer number="118" name="Rect_Pads" color="7" fill="1" visible="yes" active="yes"/>
<layer number="119" name="KAP_TEKEN" color="7" fill="1" visible="yes" active="yes"/>
<layer number="120" name="KAP_MAAT1" color="7" fill="1" visible="yes" active="yes"/>
<layer number="121" name="_tsilk" color="7" fill="1" visible="yes" active="yes"/>
<layer number="122" name="_bsilk" color="7" fill="1" visible="yes" active="yes"/>
<layer number="123" name="tTestmark" color="7" fill="1" visible="yes" active="yes"/>
<layer number="124" name="bTestmark" color="7" fill="1" visible="yes" active="yes"/>
<layer number="125" name="_tNames" color="7" fill="1" visible="yes" active="yes"/>
<layer number="126" name="_bNames" color="7" fill="1" visible="yes" active="yes"/>
<layer number="127" name="_tValues" color="7" fill="1" visible="yes" active="yes"/>
<layer number="128" name="_bValues" color="7" fill="1" visible="yes" active="yes"/>
<layer number="129" name="Mask" color="7" fill="1" visible="yes" active="yes"/>
<layer number="130" name="SMDSTROOK" color="7" fill="1" visible="yes" active="yes"/>
<layer number="131" name="tAdjust" color="7" fill="1" visible="yes" active="yes"/>
<layer number="132" name="bAdjust" color="7" fill="1" visible="yes" active="yes"/>
<layer number="133" name="bottom_silk" color="7" fill="1" visible="yes" active="yes"/>
<layer number="134" name="silk_top" color="7" fill="1" visible="no" active="no"/>
<layer number="135" name="silk_bottom" color="7" fill="1" visible="no" active="no"/>
<layer number="136" name="silktop" color="7" fill="1" visible="yes" active="yes"/>
<layer number="137" name="silkbottom" color="7" fill="1" visible="yes" active="yes"/>
<layer number="144" name="Drill_legend" color="7" fill="1" visible="yes" active="yes"/>
<layer number="145" name="DrillLegend_01-16" color="7" fill="1" visible="yes" active="yes"/>
<layer number="146" name="DrillLegend_01-20" color="7" fill="1" visible="yes" active="yes"/>
<layer number="150" name="Notes" color="7" fill="1" visible="yes" active="yes"/>
<layer number="151" name="HeatSink" color="7" fill="1" visible="yes" active="yes"/>
<layer number="152" name="_bDocu" color="7" fill="1" visible="yes" active="yes"/>
<layer number="153" name="FabDoc1" color="7" fill="1" visible="yes" active="yes"/>
<layer number="154" name="FabDoc2" color="7" fill="1" visible="yes" active="yes"/>
<layer number="155" name="FabDoc3" color="7" fill="1" visible="yes" active="yes"/>
<layer number="199" name="Contour" color="7" fill="1" visible="yes" active="yes"/>
<layer number="200" name="200bmp" color="1" fill="10" visible="yes" active="yes"/>
<layer number="201" name="201bmp" color="2" fill="10" visible="yes" active="yes"/>
<layer number="202" name="202bmp" color="3" fill="10" visible="yes" active="yes"/>
<layer number="203" name="203bmp" color="4" fill="10" visible="yes" active="yes"/>
<layer number="204" name="204bmp" color="5" fill="10" visible="yes" active="yes"/>
<layer number="205" name="205bmp" color="6" fill="10" visible="yes" active="yes"/>
<layer number="206" name="206bmp" color="7" fill="10" visible="yes" active="yes"/>
<layer number="207" name="207bmp" color="8" fill="10" visible="yes" active="yes"/>
<layer number="208" name="208bmp" color="9" fill="10" visible="yes" active="yes"/>
<layer number="209" name="209bmp" color="7" fill="1" visible="yes" active="yes"/>
<layer number="210" name="210bmp" color="7" fill="1" visible="yes" active="yes"/>
<layer number="211" name="211bmp" color="7" fill="1" visible="yes" active="yes"/>
<layer number="212" name="212bmp" color="7" fill="1" visible="yes" active="yes"/>
<layer number="213" name="213bmp" color="7" fill="1" visible="yes" active="yes"/>
<layer number="214" name="214bmp" color="7" fill="1" visible="yes" active="yes"/>
<layer number="215" name="215bmp" color="7" fill="1" visible="yes" active="yes"/>
<layer number="216" name="216bmp" color="7" fill="1" visible="yes" active="yes"/>
<layer number="217" name="217bmp" color="18" fill="1" visible="no" active="no"/>
<layer number="218" name="218bmp" color="19" fill="1" visible="no" active="no"/>
<layer number="219" name="219bmp" color="20" fill="1" visible="no" active="no"/>
<layer number="220" name="220bmp" color="21" fill="1" visible="no" active="no"/>
<layer number="221" name="221bmp" color="22" fill="1" visible="no" active="no"/>
<layer number="222" name="222bmp" color="23" fill="1" visible="no" active="no"/>
<layer number="223" name="223bmp" color="24" fill="1" visible="no" active="no"/>
<layer number="224" name="224bmp" color="25" fill="1" visible="no" active="no"/>
<layer number="225" name="225bmp" color="7" fill="1" visible="yes" active="yes"/>
<layer number="226" name="226bmp" color="7" fill="1" visible="yes" active="yes"/>
<layer number="227" name="227bmp" color="7" fill="1" visible="yes" active="yes"/>
<layer number="228" name="228bmp" color="7" fill="1" visible="yes" active="yes"/>
<layer number="229" name="229bmp" color="7" fill="1" visible="yes" active="yes"/>
<layer number="230" name="230bmp" color="7" fill="1" visible="yes" active="yes"/>
<layer number="231" name="231bmp" color="7" fill="1" visible="yes" active="yes"/>
<layer number="232" name="Eagle3D_PG2" color="7" fill="1" visible="yes" active="yes"/>
<layer number="233" name="Eagle3D_PG3" color="7" fill="1" visible="yes" active="yes"/>
<layer number="248" name="Housing" color="7" fill="1" visible="yes" active="yes"/>
<layer number="249" name="Edge" color="7" fill="1" visible="yes" active="yes"/>
<layer number="250" name="Descript" color="3" fill="1" visible="no" active="no"/>
<layer number="251" name="SMDround" color="12" fill="11" visible="no" active="no"/>
<layer number="254" name="cooling" color="7" fill="1" visible="yes" active="yes"/>
<layer number="255" name="routoute" color="7" fill="1" visible="yes" active="yes"/>
</layers>
<board>
<plain>
<circle x="39.624" y="38.1" radius="19.053790625" width="0.025" layer="20"/>
<text x="29.464" y="52.324" size="0.635" layer="26">VREG</text>
<text x="32.766" y="54.356" size="0.635" layer="26" rot="R270">GND</text>
<text x="35.306" y="54.356" size="0.635" layer="26" rot="R270">SCL</text>
<text x="37.846" y="54.356" size="0.635" layer="26" rot="R270">SDA</text>
<text x="40.386" y="54.864" size="0.635" layer="26" rot="R270">VEXT</text>
<text x="42.926" y="54.864" size="0.635" layer="26" rot="R270">VBAT</text>
<text x="45.466" y="54.864" size="0.635" layer="26" rot="R270">VREG</text>
<text x="48.006" y="54.356" size="0.635" layer="26" rot="R270">GND</text>
<text x="35.814" y="25.146" size="0.635" layer="26" rot="R270">GND</text>
<text x="42.164" y="25.146" size="0.635" layer="26" rot="R270">VBAT</text>
</plain>
<libraries>
<library name="pinhead" urn="urn:adsk.eagle:library:325">
<description>&lt;b&gt;Pin Header Connectors&lt;/b&gt;&lt;p&gt;
&lt;author&gt;Created by librarian@cadsoft.de&lt;/author&gt;</description>
<packages>
<package name="1X02" urn="urn:adsk.eagle:footprint:22309/1" library_version="3">
<description>&lt;b&gt;PIN HEADER&lt;/b&gt;</description>
<wire x1="-1.905" y1="1.27" x2="-0.635" y2="1.27" width="0.1524" layer="21"/>
<wire x1="-0.635" y1="1.27" x2="0" y2="0.635" width="0.1524" layer="21"/>
<wire x1="0" y1="0.635" x2="0" y2="-0.635" width="0.1524" layer="21"/>
<wire x1="0" y1="-0.635" x2="-0.635" y2="-1.27" width="0.1524" layer="21"/>
<wire x1="-2.54" y1="0.635" x2="-2.54" y2="-0.635" width="0.1524" layer="21"/>
<wire x1="-1.905" y1="1.27" x2="-2.54" y2="0.635" width="0.1524" layer="21"/>
<wire x1="-2.54" y1="-0.635" x2="-1.905" y2="-1.27" width="0.1524" layer="21"/>
<wire x1="-0.635" y1="-1.27" x2="-1.905" y2="-1.27" width="0.1524" layer="21"/>
<wire x1="0" y1="0.635" x2="0.635" y2="1.27" width="0.1524" layer="21"/>
<wire x1="0.635" y1="1.27" x2="1.905" y2="1.27" width="0.1524" layer="21"/>
<wire x1="1.905" y1="1.27" x2="2.54" y2="0.635" width="0.1524" layer="21"/>
<wire x1="2.54" y1="0.635" x2="2.54" y2="-0.635" width="0.1524" layer="21"/>
<wire x1="2.54" y1="-0.635" x2="1.905" y2="-1.27" width="0.1524" layer="21"/>
<wire x1="1.905" y1="-1.27" x2="0.635" y2="-1.27" width="0.1524" layer="21"/>
<wire x1="0.635" y1="-1.27" x2="0" y2="-0.635" width="0.1524" layer="21"/>
<pad name="1" x="-1.27" y="0" drill="1.016" shape="long" rot="R90"/>
<pad name="2" x="1.27" y="0" drill="1.016" shape="long" rot="R90"/>
<text x="-2.6162" y="1.8288" size="1.27" layer="25" ratio="10">&gt;NAME</text>
<text x="-2.54" y="-3.175" size="1.27" layer="27">&gt;VALUE</text>
<rectangle x1="-1.524" y1="-0.254" x2="-1.016" y2="0.254" layer="51"/>
<rectangle x1="1.016" y1="-0.254" x2="1.524" y2="0.254" layer="51"/>
</package>
</packages>
<packages3d>
<package3d name="1X02" urn="urn:adsk.eagle:package:22435/2" type="model" library_version="3">
<description>PIN HEADER</description>
<packageinstances>
<packageinstance name="1X02"/>
</packageinstances>
</package3d>
</packages3d>
</library>
<library name="SparkFun-Capacitors" urn="urn:adsk.eagle:library:510">
<description>&lt;h3&gt;SparkFun Capacitors&lt;/h3&gt;
This library contains capacitors. 
&lt;br&gt;
&lt;br&gt;
We've spent an enormous amount of time creating and checking these footprints and parts, but it is &lt;b&gt; the end user's responsibility&lt;/b&gt; to ensure correctness and suitablity for a given componet or application. 
&lt;br&gt;
&lt;br&gt;If you enjoy using this library, please buy one of our products at &lt;a href=" www.sparkfun.com"&gt;SparkFun.com&lt;/a&gt;.
&lt;br&gt;
&lt;br&gt;
&lt;b&gt;Licensing:&lt;/b&gt; Creative Commons ShareAlike 4.0 International - https://creativecommons.org/licenses/by-sa/4.0/ 
&lt;br&gt;
&lt;br&gt;
You are welcome to use this library for commercial purposes. For attribution, we ask that when you begin to sell your device using our footprint, you email us with a link to the product being sold. We want bragging rights that we helped (in a very small part) to create your 8th world wonder. We would like the opportunity to feature your device on our homepage.</description>
<packages>
<package name="0603" urn="urn:adsk.eagle:footprint:37386/1" library_version="1">
<description>&lt;p&gt;&lt;b&gt;Generic 1608 (0603) package&lt;/b&gt;&lt;/p&gt;
&lt;p&gt;0.2mm courtyard excess rounded to nearest 0.05mm.&lt;/p&gt;</description>
<wire x1="-1.6" y1="0.7" x2="1.6" y2="0.7" width="0.0508" layer="39"/>
<wire x1="1.6" y1="0.7" x2="1.6" y2="-0.7" width="0.0508" layer="39"/>
<wire x1="1.6" y1="-0.7" x2="-1.6" y2="-0.7" width="0.0508" layer="39"/>
<wire x1="-1.6" y1="-0.7" x2="-1.6" y2="0.7" width="0.0508" layer="39"/>
<wire x1="-0.356" y1="0.432" x2="0.356" y2="0.432" width="0.1016" layer="51"/>
<wire x1="-0.356" y1="-0.419" x2="0.356" y2="-0.419" width="0.1016" layer="51"/>
<smd name="1" x="-0.85" y="0" dx="1.1" dy="1" layer="1"/>
<smd name="2" x="0.85" y="0" dx="1.1" dy="1" layer="1"/>
<text x="0" y="0.762" size="0.6096" layer="25" font="vector" ratio="20" align="bottom-center">&gt;NAME</text>
<text x="0" y="-0.762" size="0.6096" layer="27" font="vector" ratio="20" align="top-center">&gt;VALUE</text>
<rectangle x1="-0.8382" y1="-0.4699" x2="-0.3381" y2="0.4801" layer="51"/>
<rectangle x1="0.3302" y1="-0.4699" x2="0.8303" y2="0.4801" layer="51"/>
<rectangle x1="-0.1999" y1="-0.3" x2="0.1999" y2="0.3" layer="35"/>
</package>
</packages>
<packages3d>
<package3d name="0603" urn="urn:adsk.eagle:package:37414/1" type="box" library_version="1">
<description>Generic 1608 (0603) package
0.2mm courtyard excess rounded to nearest 0.05mm.</description>
<packageinstances>
<packageinstance name="0603"/>
</packageinstances>
</package3d>
</packages3d>
</library>
<library name="SparkFun-IC-Power" urn="urn:adsk.eagle:library:526">
<description>&lt;h3&gt;SparkFun Power Driver and Management ICs&lt;/h3&gt;
In this library you'll find anything that has to do with power delivery, or making power supplies.
&lt;p&gt;Contents:
&lt;ul&gt;&lt;li&gt;LDOs&lt;/li&gt;
&lt;li&gt;Boost/Buck controllers&lt;/li&gt;
&lt;li&gt;Charge pump controllers&lt;/li&gt;
&lt;li&gt;Power sequencers&lt;/li&gt;
&lt;li&gt;Power switches&lt;/li&gt;
&lt;/ul&gt;&lt;/p&gt;
&lt;br&gt;
We've spent an enormous amount of time creating and checking these footprints and parts, but it is &lt;b&gt; the end user's responsibility&lt;/b&gt; to ensure correctness and suitablity for a given componet or application. 
&lt;br&gt;
&lt;br&gt;If you enjoy using this library, please buy one of our products at &lt;a href=" www.sparkfun.com"&gt;SparkFun.com&lt;/a&gt;.
&lt;br&gt;
&lt;br&gt;
&lt;b&gt;Licensing:&lt;/b&gt; Creative Commons ShareAlike 4.0 International - https://creativecommons.org/licenses/by-sa/4.0/ 
&lt;br&gt;
&lt;br&gt;
You are welcome to use this library for commercial purposes. For attribution, we ask that when you begin to sell your device using our footprint, you email us with a link to the product being sold. We want bragging rights that we helped (in a very small part) to create your 8th world wonder. We would like the opportunity to feature your device on our homepage.</description>
<packages>
<package name="SOT23-5" urn="urn:adsk.eagle:footprint:39006/1" library_version="1">
<description>&lt;b&gt;Small Outline Transistor&lt;/b&gt;</description>
<wire x1="1.27" y1="0.4294" x2="1.27" y2="-0.4294" width="0.2032" layer="21"/>
<wire x1="1.4" y1="-0.8" x2="-1.4" y2="-0.8" width="0.1524" layer="51"/>
<wire x1="-1.27" y1="-0.4294" x2="-1.27" y2="0.4294" width="0.2032" layer="21"/>
<wire x1="-1.4" y1="0.8" x2="1.4" y2="0.8" width="0.1524" layer="51"/>
<wire x1="-0.2684" y1="0.7088" x2="0.2684" y2="0.7088" width="0.2032" layer="21"/>
<wire x1="1.4" y1="0.8" x2="1.4" y2="-0.8" width="0.1524" layer="51"/>
<wire x1="-1.4" y1="0.8" x2="-1.4" y2="-0.8" width="0.1524" layer="51"/>
<rectangle x1="-1.2" y1="-1.5" x2="-0.7" y2="-0.85" layer="51"/>
<rectangle x1="-0.25" y1="-1.5" x2="0.25" y2="-0.85" layer="51"/>
<rectangle x1="0.7" y1="-1.5" x2="1.2" y2="-0.85" layer="51"/>
<rectangle x1="0.7" y1="0.85" x2="1.2" y2="1.5" layer="51"/>
<rectangle x1="-1.2" y1="0.85" x2="-0.7" y2="1.5" layer="51"/>
<smd name="1" x="-0.95" y="-1.3001" dx="0.55" dy="1.2" layer="1"/>
<smd name="2" x="0" y="-1.3001" dx="0.55" dy="1.2" layer="1"/>
<smd name="3" x="0.95" y="-1.3001" dx="0.55" dy="1.2" layer="1"/>
<smd name="4" x="0.95" y="1.3001" dx="0.55" dy="1.2" layer="1"/>
<smd name="5" x="-0.95" y="1.3001" dx="0.55" dy="1.2" layer="1"/>
<text x="-0.889" y="2.159" size="0.4064" layer="25">&gt;NAME</text>
<text x="-0.9525" y="-0.1905" size="0.4064" layer="27">&gt;VALUE</text>
<circle x="-1.6002" y="-1.016" radius="0.127" width="0" layer="21"/>
</package>
</packages>
<packages3d>
<package3d name="SOT23-5" urn="urn:adsk.eagle:package:39060/1" type="box" library_version="1">
<description>Small Outline Transistor</description>
<packageinstances>
<packageinstance name="SOT23-5"/>
</packageinstances>
</package3d>
</packages3d>
</library>
<library name="SparkFun-LED" urn="urn:adsk.eagle:library:529">
<description>&lt;h3&gt;SparkFun LEDs&lt;/h3&gt;
This library contains discrete LEDs for illumination or indication, but no displays.
&lt;br&gt;
&lt;br&gt;
We've spent an enormous amount of time creating and checking these footprints and parts, but it is &lt;b&gt; the end user's responsibility&lt;/b&gt; to ensure correctness and suitablity for a given componet or application. 
&lt;br&gt;
&lt;br&gt;If you enjoy using this library, please buy one of our products at &lt;a href=" www.sparkfun.com"&gt;SparkFun.com&lt;/a&gt;.
&lt;br&gt;
&lt;br&gt;
&lt;b&gt;Licensing:&lt;/b&gt; Creative Commons ShareAlike 4.0 International - https://creativecommons.org/licenses/by-sa/4.0/ 
&lt;br&gt;
&lt;br&gt;
You are welcome to use this library for commercial purposes. For attribution, we ask that when you begin to sell your device using our footprint, you email us with a link to the product being sold. We want bragging rights that we helped (in a very small part) to create your 8th world wonder. We would like the opportunity to feature your device on our homepage.</description>
<packages>
<package name="LED-0603" urn="urn:adsk.eagle:footprint:39307/1" library_version="1">
<description>&lt;B&gt;LED 0603 SMT&lt;/B&gt;&lt;p&gt;
0603, surface mount.
&lt;p&gt;Specifications:
&lt;ul&gt;&lt;li&gt;Pin count: 2&lt;/li&gt;
&lt;li&gt;Pin pitch:0.075inch &lt;/li&gt;
&lt;li&gt;Area: 0.06" x 0.03"&lt;/li&gt;
&lt;/ul&gt;&lt;/p&gt;
&lt;p&gt;Example device(s):
&lt;ul&gt;&lt;li&gt;LED - BLUE&lt;/li&gt;</description>
<smd name="C" x="0.877" y="0" dx="1" dy="1" layer="1" roundness="30" rot="R270"/>
<smd name="A" x="-0.877" y="0" dx="1" dy="1" layer="1" roundness="30" rot="R270"/>
<text x="0" y="0.635" size="0.6096" layer="25" font="vector" ratio="20" align="bottom-center">&gt;NAME</text>
<text x="0" y="-0.635" size="0.6096" layer="27" font="vector" ratio="20" align="top-center">&gt;VALUE</text>
<wire x1="1.5875" y1="0.47625" x2="1.5875" y2="-0.47625" width="0.127" layer="21"/>
<wire x1="0.15875" y1="0.47625" x2="0.15875" y2="0" width="0.127" layer="51"/>
<wire x1="0.15875" y1="0" x2="0.15875" y2="-0.47625" width="0.127" layer="51"/>
<wire x1="0.15875" y1="0" x2="-0.15875" y2="0.3175" width="0.127" layer="51"/>
<wire x1="0.15875" y1="0" x2="-0.15875" y2="-0.3175" width="0.127" layer="51"/>
</package>
</packages>
<packages3d>
<package3d name="LED-0603" urn="urn:adsk.eagle:package:39354/1" type="box" library_version="1">
<description>LED 0603 SMT
0603, surface mount.
Specifications:
Pin count: 2
Pin pitch:0.075inch 
Area: 0.06" x 0.03"

Example device(s):
LED - BLUE</description>
<packageinstances>
<packageinstance name="LED-0603"/>
</packageinstances>
</package3d>
</packages3d>
</library>
<library name="SparkFun-Resistors" urn="urn:adsk.eagle:library:532">
<description>&lt;h3&gt;SparkFun Resistors&lt;/h3&gt;
This library contains resistors. Reference designator:R. 
&lt;br&gt;
&lt;br&gt;
We've spent an enormous amount of time creating and checking these footprints and parts, but it is &lt;b&gt; the end user's responsibility&lt;/b&gt; to ensure correctness and suitablity for a given componet or application. 
&lt;br&gt;
&lt;br&gt;If you enjoy using this library, please buy one of our products at &lt;a href=" www.sparkfun.com"&gt;SparkFun.com&lt;/a&gt;.
&lt;br&gt;
&lt;br&gt;
&lt;b&gt;Licensing:&lt;/b&gt; Creative Commons ShareAlike 4.0 International - https://creativecommons.org/licenses/by-sa/4.0/ 
&lt;br&gt;
&lt;br&gt;
You are welcome to use this library for commercial purposes. For attribution, we ask that when you begin to sell your device using our footprint, you email us with a link to the product being sold. We want bragging rights that we helped (in a very small part) to create your 8th world wonder. We would like the opportunity to feature your device on our homepage.</description>
<packages>
<package name="0603" urn="urn:adsk.eagle:footprint:39615/1" library_version="1">
<description>&lt;p&gt;&lt;b&gt;Generic 1608 (0603) package&lt;/b&gt;&lt;/p&gt;
&lt;p&gt;0.2mm courtyard excess rounded to nearest 0.05mm.&lt;/p&gt;</description>
<wire x1="-1.6" y1="0.7" x2="1.6" y2="0.7" width="0.0508" layer="39"/>
<wire x1="1.6" y1="0.7" x2="1.6" y2="-0.7" width="0.0508" layer="39"/>
<wire x1="1.6" y1="-0.7" x2="-1.6" y2="-0.7" width="0.0508" layer="39"/>
<wire x1="-1.6" y1="-0.7" x2="-1.6" y2="0.7" width="0.0508" layer="39"/>
<wire x1="-0.356" y1="0.432" x2="0.356" y2="0.432" width="0.1016" layer="51"/>
<wire x1="-0.356" y1="-0.419" x2="0.356" y2="-0.419" width="0.1016" layer="51"/>
<smd name="1" x="-0.85" y="0" dx="1.1" dy="1" layer="1"/>
<smd name="2" x="0.85" y="0" dx="1.1" dy="1" layer="1"/>
<text x="0" y="0.762" size="0.6096" layer="25" font="vector" ratio="20" align="bottom-center">&gt;NAME</text>
<text x="0" y="-0.762" size="0.6096" layer="27" font="vector" ratio="20" align="top-center">&gt;VALUE</text>
<rectangle x1="-0.8382" y1="-0.4699" x2="-0.3381" y2="0.4801" layer="51"/>
<rectangle x1="0.3302" y1="-0.4699" x2="0.8303" y2="0.4801" layer="51"/>
<rectangle x1="-0.1999" y1="-0.3" x2="0.1999" y2="0.3" layer="35"/>
</package>
</packages>
<packages3d>
<package3d name="0603" urn="urn:adsk.eagle:package:39650/1" type="box" library_version="1">
<description>Generic 1608 (0603) package
0.2mm courtyard excess rounded to nearest 0.05mm.</description>
<packageinstances>
<packageinstance name="0603"/>
</packageinstances>
</package3d>
</packages3d>
</library>
<library name="SparkFun-Connectors" urn="urn:adsk.eagle:library:513">
<description>&lt;h3&gt;SparkFun Connectors&lt;/h3&gt;
This library contains electrically-functional connectors. 
&lt;br&gt;
&lt;br&gt;
We've spent an enormous amount of time creating and checking these footprints and parts, but it is &lt;b&gt; the end user's responsibility&lt;/b&gt; to ensure correctness and suitablity for a given componet or application. 
&lt;br&gt;
&lt;br&gt;If you enjoy using this library, please buy one of our products at &lt;a href=" www.sparkfun.com"&gt;SparkFun.com&lt;/a&gt;.
&lt;br&gt;
&lt;br&gt;
&lt;b&gt;Licensing:&lt;/b&gt; Creative Commons ShareAlike 4.0 International - https://creativecommons.org/licenses/by-sa/4.0/ 
&lt;br&gt;
&lt;br&gt;
You are welcome to use this library for commercial purposes. For attribution, we ask that when you begin to sell your device using our footprint, you email us with a link to the product being sold. We want bragging rights that we helped (in a very small part) to create your 8th world wonder. We would like the opportunity to feature your device on our homepage.</description>
<packages>
<package name="1X08" urn="urn:adsk.eagle:footprint:37760/1" library_version="1">
<description>&lt;h3&gt;Plated Through Hole -8 Pin&lt;/h3&gt;
&lt;p&gt;Specifications:
&lt;ul&gt;&lt;li&gt;Pin count:8&lt;/li&gt;
&lt;li&gt;Pin pitch:0.1"&lt;/li&gt;
&lt;/ul&gt;&lt;/p&gt;
&lt;p&gt;Example device(s):
&lt;ul&gt;&lt;li&gt;CONN_08&lt;/li&gt;
&lt;/ul&gt;&lt;/p&gt;</description>
<wire x1="14.605" y1="1.27" x2="15.875" y2="1.27" width="0.2032" layer="21"/>
<wire x1="15.875" y1="1.27" x2="16.51" y2="0.635" width="0.2032" layer="21"/>
<wire x1="16.51" y1="-0.635" x2="15.875" y2="-1.27" width="0.2032" layer="21"/>
<wire x1="11.43" y1="0.635" x2="12.065" y2="1.27" width="0.2032" layer="21"/>
<wire x1="12.065" y1="1.27" x2="13.335" y2="1.27" width="0.2032" layer="21"/>
<wire x1="13.335" y1="1.27" x2="13.97" y2="0.635" width="0.2032" layer="21"/>
<wire x1="13.97" y1="-0.635" x2="13.335" y2="-1.27" width="0.2032" layer="21"/>
<wire x1="13.335" y1="-1.27" x2="12.065" y2="-1.27" width="0.2032" layer="21"/>
<wire x1="12.065" y1="-1.27" x2="11.43" y2="-0.635" width="0.2032" layer="21"/>
<wire x1="14.605" y1="1.27" x2="13.97" y2="0.635" width="0.2032" layer="21"/>
<wire x1="13.97" y1="-0.635" x2="14.605" y2="-1.27" width="0.2032" layer="21"/>
<wire x1="15.875" y1="-1.27" x2="14.605" y2="-1.27" width="0.2032" layer="21"/>
<wire x1="6.985" y1="1.27" x2="8.255" y2="1.27" width="0.2032" layer="21"/>
<wire x1="8.255" y1="1.27" x2="8.89" y2="0.635" width="0.2032" layer="21"/>
<wire x1="8.89" y1="-0.635" x2="8.255" y2="-1.27" width="0.2032" layer="21"/>
<wire x1="8.89" y1="0.635" x2="9.525" y2="1.27" width="0.2032" layer="21"/>
<wire x1="9.525" y1="1.27" x2="10.795" y2="1.27" width="0.2032" layer="21"/>
<wire x1="10.795" y1="1.27" x2="11.43" y2="0.635" width="0.2032" layer="21"/>
<wire x1="11.43" y1="-0.635" x2="10.795" y2="-1.27" width="0.2032" layer="21"/>
<wire x1="10.795" y1="-1.27" x2="9.525" y2="-1.27" width="0.2032" layer="21"/>
<wire x1="9.525" y1="-1.27" x2="8.89" y2="-0.635" width="0.2032" layer="21"/>
<wire x1="3.81" y1="0.635" x2="4.445" y2="1.27" width="0.2032" layer="21"/>
<wire x1="4.445" y1="1.27" x2="5.715" y2="1.27" width="0.2032" layer="21"/>
<wire x1="5.715" y1="1.27" x2="6.35" y2="0.635" width="0.2032" layer="21"/>
<wire x1="6.35" y1="-0.635" x2="5.715" y2="-1.27" width="0.2032" layer="21"/>
<wire x1="5.715" y1="-1.27" x2="4.445" y2="-1.27" width="0.2032" layer="21"/>
<wire x1="4.445" y1="-1.27" x2="3.81" y2="-0.635" width="0.2032" layer="21"/>
<wire x1="6.985" y1="1.27" x2="6.35" y2="0.635" width="0.2032" layer="21"/>
<wire x1="6.35" y1="-0.635" x2="6.985" y2="-1.27" width="0.2032" layer="21"/>
<wire x1="8.255" y1="-1.27" x2="6.985" y2="-1.27" width="0.2032" layer="21"/>
<wire x1="-0.635" y1="1.27" x2="0.635" y2="1.27" width="0.2032" layer="21"/>
<wire x1="0.635" y1="1.27" x2="1.27" y2="0.635" width="0.2032" layer="21"/>
<wire x1="1.27" y1="-0.635" x2="0.635" y2="-1.27" width="0.2032" layer="21"/>
<wire x1="1.27" y1="0.635" x2="1.905" y2="1.27" width="0.2032" layer="21"/>
<wire x1="1.905" y1="1.27" x2="3.175" y2="1.27" width="0.2032" layer="21"/>
<wire x1="3.175" y1="1.27" x2="3.81" y2="0.635" width="0.2032" layer="21"/>
<wire x1="3.81" y1="-0.635" x2="3.175" y2="-1.27" width="0.2032" layer="21"/>
<wire x1="3.175" y1="-1.27" x2="1.905" y2="-1.27" width="0.2032" layer="21"/>
<wire x1="1.905" y1="-1.27" x2="1.27" y2="-0.635" width="0.2032" layer="21"/>
<wire x1="-1.27" y1="0.635" x2="-1.27" y2="-0.635" width="0.2032" layer="21"/>
<wire x1="-0.635" y1="1.27" x2="-1.27" y2="0.635" width="0.2032" layer="21"/>
<wire x1="-1.27" y1="-0.635" x2="-0.635" y2="-1.27" width="0.2032" layer="21"/>
<wire x1="0.635" y1="-1.27" x2="-0.635" y2="-1.27" width="0.2032" layer="21"/>
<wire x1="17.145" y1="1.27" x2="18.415" y2="1.27" width="0.2032" layer="21"/>
<wire x1="18.415" y1="1.27" x2="19.05" y2="0.635" width="0.2032" layer="21"/>
<wire x1="19.05" y1="0.635" x2="19.05" y2="-0.635" width="0.2032" layer="21"/>
<wire x1="19.05" y1="-0.635" x2="18.415" y2="-1.27" width="0.2032" layer="21"/>
<wire x1="17.145" y1="1.27" x2="16.51" y2="0.635" width="0.2032" layer="21"/>
<wire x1="16.51" y1="-0.635" x2="17.145" y2="-1.27" width="0.2032" layer="21"/>
<wire x1="18.415" y1="-1.27" x2="17.145" y2="-1.27" width="0.2032" layer="21"/>
<pad name="1" x="0" y="0" drill="1.016" diameter="1.8796" rot="R90"/>
<pad name="2" x="2.54" y="0" drill="1.016" diameter="1.8796" rot="R90"/>
<pad name="3" x="5.08" y="0" drill="1.016" diameter="1.8796" rot="R90"/>
<pad name="4" x="7.62" y="0" drill="1.016" diameter="1.8796" rot="R90"/>
<pad name="5" x="10.16" y="0" drill="1.016" diameter="1.8796" rot="R90"/>
<pad name="6" x="12.7" y="0" drill="1.016" diameter="1.8796" rot="R90"/>
<pad name="7" x="15.24" y="0" drill="1.016" diameter="1.8796" rot="R90"/>
<pad name="8" x="17.78" y="0" drill="1.016" diameter="1.8796" rot="R90"/>
<rectangle x1="14.986" y1="-0.254" x2="15.494" y2="0.254" layer="51"/>
<rectangle x1="12.446" y1="-0.254" x2="12.954" y2="0.254" layer="51"/>
<rectangle x1="9.906" y1="-0.254" x2="10.414" y2="0.254" layer="51"/>
<rectangle x1="7.366" y1="-0.254" x2="7.874" y2="0.254" layer="51"/>
<rectangle x1="4.826" y1="-0.254" x2="5.334" y2="0.254" layer="51"/>
<rectangle x1="2.286" y1="-0.254" x2="2.794" y2="0.254" layer="51"/>
<rectangle x1="-0.254" y1="-0.254" x2="0.254" y2="0.254" layer="51"/>
<rectangle x1="17.526" y1="-0.254" x2="18.034" y2="0.254" layer="51"/>
<text x="-1.27" y="1.397" size="0.6096" layer="25" font="vector" ratio="20">&gt;NAME</text>
<text x="-1.27" y="-2.032" size="0.6096" layer="27" font="vector" ratio="20">&gt;VALUE</text>
</package>
</packages>
<packages3d>
<package3d name="1X08" urn="urn:adsk.eagle:package:38138/1" type="box" library_version="1">
<description>Plated Through Hole -8 Pin
Specifications:
Pin count:8
Pin pitch:0.1"

Example device(s):
CONN_08
</description>
<packageinstances>
<packageinstance name="1X08"/>
</packageinstances>
</package3d>
</packages3d>
</library>
<library name="AP2112M">
<packages>
<package name="AP2112M">
<smd name="8" x="-1.905" y="2.4975" dx="0.802" dy="1.505" layer="1"/>
<smd name="7" x="-0.635" y="2.4975" dx="0.802" dy="1.505" layer="1"/>
<smd name="6" x="0.635" y="2.4975" dx="0.802" dy="1.505" layer="1"/>
<smd name="5" x="1.905" y="2.4975" dx="0.802" dy="1.505" layer="1"/>
<smd name="4" x="1.905" y="-2.4975" dx="0.802" dy="1.505" layer="1"/>
<smd name="3" x="0.635" y="-2.4975" dx="0.802" dy="1.505" layer="1"/>
<smd name="2" x="-0.635" y="-2.4975" dx="0.802" dy="1.505" layer="1"/>
<smd name="1" x="-1.905" y="-2.4975" dx="0.802" dy="1.505" layer="1"/>
<circle x="-2.145" y="-3.098" radius="0.02408125" width="0.127" layer="21"/>
<wire x1="-2.45" y1="-1.95" x2="2.45" y2="-1.95" width="0.127" layer="51"/>
<wire x1="2.45" y1="-1.95" x2="2.45" y2="1.95" width="0.127" layer="51"/>
<wire x1="2.45" y1="1.95" x2="-2.45" y2="1.95" width="0.127" layer="51"/>
<wire x1="-2.45" y1="1.95" x2="-2.45" y2="-1.946" width="0.127" layer="51"/>
<wire x1="-2.45" y1="-1.946" x2="-2.418" y2="-1.946" width="0.127" layer="51"/>
<wire x1="-2.404" y1="1.975" x2="-2.404" y2="-1.932" width="0.127" layer="21"/>
<wire x1="-2.404" y1="-1.932" x2="-2.375" y2="-1.932" width="0.127" layer="21"/>
<wire x1="-2.333" y1="-1.932" x2="-2.375" y2="-1.932" width="0.127" layer="21"/>
<wire x1="-2.375" y1="-1.932" x2="-2.375" y2="-1.875" width="0.127" layer="21"/>
<wire x1="-2.375" y1="-1.875" x2="-2.461" y2="-1.875" width="0.127" layer="21"/>
<wire x1="2.461" y1="1.932" x2="2.461" y2="-1.889" width="0.127" layer="21"/>
<wire x1="2.461" y1="-1.889" x2="2.404" y2="-1.889" width="0.127" layer="21"/>
<text x="-2.991" y="1.03" size="0.4064" layer="25" rot="R270">&gt;NAME</text>
<text x="3.134" y="-1.188" size="0.4064" layer="25" rot="R90">&gt;VALUE</text>
</package>
</packages>
</library>
<library name="Seeed-Diode" urn="urn:adsk.eagle:library:467">
<packages>
<package name="SOD-123" urn="urn:adsk.eagle:footprint:32500/1" library_version="1">
<description>&lt;b&gt;Diode&lt;/b&gt;</description>
<wire x1="-1.143" y1="-0.635" x2="-1.143" y2="0.635" width="0.127" layer="51"/>
<wire x1="1.143" y1="0.635" x2="1.143" y2="-0.635" width="0.127" layer="51"/>
<wire x1="-1.143" y1="0.889" x2="1.143" y2="0.889" width="0.127" layer="21"/>
<wire x1="1.143" y1="-0.889" x2="-1.143" y2="-0.889" width="0.127" layer="21"/>
<wire x1="0.381" y1="0" x2="-0.381" y2="-0.635" width="0.127" layer="21"/>
<wire x1="-0.381" y1="-0.635" x2="-0.381" y2="-0.508" width="0.127" layer="21"/>
<wire x1="-0.381" y1="-0.508" x2="-0.381" y2="-0.381" width="0.127" layer="21"/>
<wire x1="-0.381" y1="-0.381" x2="-0.381" y2="0.635" width="0.127" layer="21"/>
<wire x1="-0.381" y1="0.635" x2="0.381" y2="0" width="0.127" layer="21"/>
<wire x1="0.381" y1="0" x2="-0.381" y2="-0.508" width="0.127" layer="21"/>
<wire x1="-0.381" y1="-0.508" x2="-0.254" y2="0.508" width="0.127" layer="21"/>
<wire x1="-0.254" y1="0.508" x2="0.254" y2="0" width="0.127" layer="21"/>
<wire x1="0.254" y1="0" x2="-0.381" y2="-0.381" width="0.127" layer="21"/>
<wire x1="-0.381" y1="-0.381" x2="-0.254" y2="0.381" width="0.127" layer="21"/>
<wire x1="-0.254" y1="0.381" x2="0.127" y2="0" width="0.127" layer="21"/>
<wire x1="0.127" y1="0" x2="-0.254" y2="-0.254" width="0.127" layer="21"/>
<wire x1="-0.254" y1="-0.254" x2="-0.254" y2="-0.127" width="0.127" layer="21"/>
<wire x1="-0.254" y1="-0.127" x2="-0.254" y2="0.254" width="0.127" layer="21"/>
<wire x1="-0.254" y1="0.254" x2="-0.127" y2="0.127" width="0.127" layer="21"/>
<wire x1="-0.127" y1="0.127" x2="0" y2="0" width="0.127" layer="21"/>
<wire x1="0" y1="0" x2="-0.254" y2="-0.127" width="0.127" layer="21"/>
<wire x1="-0.254" y1="-0.127" x2="-0.127" y2="0.127" width="0.127" layer="21"/>
<wire x1="-0.127" y1="0.127" x2="-0.127" y2="0" width="0.127" layer="21"/>
<smd name="-" x="1.651" y="0" dx="1.397" dy="1.397" layer="1" rot="R180"/>
<smd name="+" x="-1.651" y="0" dx="1.397" dy="1.397" layer="1" rot="R180"/>
<text x="-1.905" y="1.143" size="0.889" layer="25" ratio="11">&gt;NAME</text>
<text x="-1.905" y="-2.032" size="0.889" layer="27" font="vector" ratio="11">&gt;VALUE</text>
<text x="-0.889" y="-0.635" size="0.381" layer="33" ratio="10">&gt;NAME</text>
<rectangle x1="1.2" y1="-0.4" x2="1.95" y2="0.45" layer="51" rot="R180"/>
<rectangle x1="-1.95" y1="-0.4" x2="-1.2" y2="0.45" layer="51" rot="R180"/>
</package>
</packages>
<packages3d>
<package3d name="SOD-123" urn="urn:adsk.eagle:package:32510/1" type="box" library_version="1">
<description>Diode</description>
<packageinstances>
<packageinstance name="SOD-123"/>
</packageinstances>
</package3d>
</packages3d>
</library>
</libraries>
<attributes>
</attributes>
<variantdefs>
</variantdefs>
<classes>
<class number="0" name="default" width="0" drill="0">
</class>
</classes>
<designrules name="default">
<description language="de">&lt;b&gt;EAGLE Design Rules&lt;/b&gt;
&lt;p&gt;
Die Standard-Design-Rules sind so gewählt, dass sie für 
die meisten Anwendungen passen. Sollte ihre Platine 
besondere Anforderungen haben, treffen Sie die erforderlichen
Einstellungen hier und speichern die Design Rules unter 
einem neuen Namen ab.</description>
<description language="en">&lt;b&gt;EAGLE Design Rules&lt;/b&gt;
&lt;p&gt;
The default Design Rules have been set to cover
a wide range of applications. Your particular design
may have different requirements, so please make the
necessary adjustments and save your customized
design rules under a new name.</description>
<param name="layerSetup" value="(1*16)"/>
<param name="mtCopper" value="0.035mm 0.035mm 0.035mm 0.035mm 0.035mm 0.035mm 0.035mm 0.035mm 0.035mm 0.035mm 0.035mm 0.035mm 0.035mm 0.035mm 0.035mm 0.035mm"/>
<param name="mtIsolate" value="1.5mm 0.15mm 0.2mm 0.15mm 0.2mm 0.15mm 0.2mm 0.15mm 0.2mm 0.15mm 0.2mm 0.15mm 0.2mm 0.15mm 0.2mm"/>
<param name="mdWireWire" value="6mil"/>
<param name="mdWirePad" value="6mil"/>
<param name="mdWireVia" value="6mil"/>
<param name="mdPadPad" value="6mil"/>
<param name="mdPadVia" value="6mil"/>
<param name="mdViaVia" value="6mil"/>
<param name="mdSmdPad" value="6mil"/>
<param name="mdSmdVia" value="6mil"/>
<param name="mdSmdSmd" value="6mil"/>
<param name="mdViaViaSameLayer" value="6mil"/>
<param name="mnLayersViaInSmd" value="2"/>
<param name="mdCopperDimension" value="40mil"/>
<param name="mdDrill" value="6mil"/>
<param name="mdSmdStop" value="0mil"/>
<param name="msWidth" value="6mil"/>
<param name="msDrill" value="0.35mm"/>
<param name="msMicroVia" value="9.99mm"/>
<param name="msBlindViaRatio" value="0.5"/>
<param name="rvPadTop" value="0.25"/>
<param name="rvPadInner" value="0.25"/>
<param name="rvPadBottom" value="0.25"/>
<param name="rvViaOuter" value="0.25"/>
<param name="rvViaInner" value="0.25"/>
<param name="rvMicroViaOuter" value="0.25"/>
<param name="rvMicroViaInner" value="0.25"/>
<param name="rlMinPadTop" value="10mil"/>
<param name="rlMaxPadTop" value="20mil"/>
<param name="rlMinPadInner" value="10mil"/>
<param name="rlMaxPadInner" value="20mil"/>
<param name="rlMinPadBottom" value="10mil"/>
<param name="rlMaxPadBottom" value="20mil"/>
<param name="rlMinViaOuter" value="8mil"/>
<param name="rlMaxViaOuter" value="20mil"/>
<param name="rlMinViaInner" value="8mil"/>
<param name="rlMaxViaInner" value="20mil"/>
<param name="rlMinMicroViaOuter" value="4mil"/>
<param name="rlMaxMicroViaOuter" value="20mil"/>
<param name="rlMinMicroViaInner" value="4mil"/>
<param name="rlMaxMicroViaInner" value="20mil"/>
<param name="psTop" value="-1"/>
<param name="psBottom" value="-1"/>
<param name="psFirst" value="-1"/>
<param name="psElongationLong" value="100"/>
<param name="psElongationOffset" value="100"/>
<param name="mvStopFrame" value="1"/>
<param name="mvCreamFrame" value="0"/>
<param name="mlMinStopFrame" value="4mil"/>
<param name="mlMaxStopFrame" value="4mil"/>
<param name="mlMinCreamFrame" value="0mil"/>
<param name="mlMaxCreamFrame" value="0mil"/>
<param name="mlViaStopLimit" value="0mil"/>
<param name="srRoundness" value="0"/>
<param name="srMinRoundness" value="0mil"/>
<param name="srMaxRoundness" value="0mil"/>
<param name="slThermalIsolate" value="10mil"/>
<param name="slThermalsForVias" value="0"/>
<param name="dpMaxLengthDifference" value="10mm"/>
<param name="dpGapFactor" value="2.5"/>
<param name="checkAngle" value="0"/>
<param name="checkFont" value="1"/>
<param name="checkRestrict" value="1"/>
<param name="checkStop" value="0"/>
<param name="checkValues" value="0"/>
<param name="useDiameter" value="13"/>
<param name="maxErrors" value="50"/>
</designrules>
<autorouter>
<pass name="Default">
<param name="RoutingGrid" value="50mil"/>
<param name="AutoGrid" value="1"/>
<param name="Efforts" value="0"/>
<param name="TopRouterVariant" value="1"/>
<param name="tpViaShape" value="round"/>
<param name="PrefDir.1" value="a"/>
<param name="PrefDir.2" value="0"/>
<param name="PrefDir.3" value="0"/>
<param name="PrefDir.4" value="0"/>
<param name="PrefDir.5" value="0"/>
<param name="PrefDir.6" value="0"/>
<param name="PrefDir.7" value="0"/>
<param name="PrefDir.8" value="0"/>
<param name="PrefDir.9" value="0"/>
<param name="PrefDir.10" value="0"/>
<param name="PrefDir.11" value="0"/>
<param name="PrefDir.12" value="0"/>
<param name="PrefDir.13" value="0"/>
<param name="PrefDir.14" value="0"/>
<param name="PrefDir.15" value="0"/>
<param name="PrefDir.16" value="a"/>
<param name="cfVia" value="8"/>
<param name="cfNonPref" value="5"/>
<param name="cfChangeDir" value="2"/>
<param name="cfOrthStep" value="2"/>
<param name="cfDiagStep" value="3"/>
<param name="cfExtdStep" value="0"/>
<param name="cfBonusStep" value="1"/>
<param name="cfMalusStep" value="1"/>
<param name="cfPadImpact" value="4"/>
<param name="cfSmdImpact" value="4"/>
<param name="cfBusImpact" value="0"/>
<param name="cfHugging" value="3"/>
<param name="cfAvoid" value="4"/>
<param name="cfPolygon" value="10"/>
<param name="cfBase.1" value="0"/>
<param name="cfBase.2" value="1"/>
<param name="cfBase.3" value="1"/>
<param name="cfBase.4" value="1"/>
<param name="cfBase.5" value="1"/>
<param name="cfBase.6" value="1"/>
<param name="cfBase.7" value="1"/>
<param name="cfBase.8" value="1"/>
<param name="cfBase.9" value="1"/>
<param name="cfBase.10" value="1"/>
<param name="cfBase.11" value="1"/>
<param name="cfBase.12" value="1"/>
<param name="cfBase.13" value="1"/>
<param name="cfBase.14" value="1"/>
<param name="cfBase.15" value="1"/>
<param name="cfBase.16" value="0"/>
<param name="mnVias" value="20"/>
<param name="mnSegments" value="9999"/>
<param name="mnExtdSteps" value="9999"/>
<param name="mnRipupLevel" value="10"/>
<param name="mnRipupSteps" value="100"/>
<param name="mnRipupTotal" value="100"/>
</pass>
<pass name="Follow-me" refer="Default" active="yes">
</pass>
<pass name="Busses" refer="Default" active="yes">
<param name="cfNonPref" value="4"/>
<param name="cfBusImpact" value="4"/>
<param name="cfHugging" value="0"/>
<param name="mnVias" value="0"/>
</pass>
<pass name="Route" refer="Default" active="yes">
</pass>
<pass name="Optimize1" refer="Default" active="yes">
<param name="cfVia" value="99"/>
<param name="cfExtdStep" value="10"/>
<param name="cfHugging" value="1"/>
<param name="mnExtdSteps" value="1"/>
<param name="mnRipupLevel" value="0"/>
</pass>
<pass name="Optimize2" refer="Optimize1" active="yes">
<param name="cfNonPref" value="0"/>
<param name="cfChangeDir" value="6"/>
<param name="cfExtdStep" value="0"/>
<param name="cfBonusStep" value="2"/>
<param name="cfMalusStep" value="2"/>
<param name="cfPadImpact" value="2"/>
<param name="cfSmdImpact" value="2"/>
<param name="cfHugging" value="0"/>
</pass>
<pass name="Optimize3" refer="Optimize2" active="yes">
<param name="cfChangeDir" value="8"/>
<param name="cfPadImpact" value="0"/>
<param name="cfSmdImpact" value="0"/>
</pass>
<pass name="Optimize4" refer="Optimize3" active="yes">
<param name="cfChangeDir" value="25"/>
</pass>
</autorouter>
<elements>
<element name="BATT" library="pinhead" library_urn="urn:adsk.eagle:library:325" package="1X02" package3d_urn="urn:adsk.eagle:package:22435/2" value="" x="39.37" y="24.13" rot="R180"/>
<element name="C1" library="SparkFun-Capacitors" library_urn="urn:adsk.eagle:library:510" package="0603" package3d_urn="urn:adsk.eagle:package:37414/1" value="4.7uF" x="27.94" y="36.83">
<attribute name="PROD_ID" value="CAP-08280" x="27.94" y="36.83" size="1.778" layer="27" display="off"/>
</element>
<element name="C2" library="SparkFun-Capacitors" library_urn="urn:adsk.eagle:library:510" package="0603" package3d_urn="urn:adsk.eagle:package:37414/1" value="4.7uF" x="43.942" y="47.498" rot="R180">
<attribute name="PROD_ID" value="CAP-08280" x="43.942" y="47.498" size="1.778" layer="27" rot="R180" display="off"/>
</element>
<element name="C3" library="SparkFun-Capacitors" library_urn="urn:adsk.eagle:library:510" package="0603" package3d_urn="urn:adsk.eagle:package:37414/1" value="1.0uF" x="36.83" y="44.45" rot="R90">
<attribute name="PROD_ID" value="CAP-00868" x="36.83" y="44.45" size="1.778" layer="27" rot="R90" display="off"/>
</element>
<element name="C4" library="SparkFun-Capacitors" library_urn="urn:adsk.eagle:library:510" package="0603" package3d_urn="urn:adsk.eagle:package:37414/1" value="1.0uF" x="52.07" y="39.37" rot="R270">
<attribute name="PROD_ID" value="CAP-00868" x="52.07" y="39.37" size="1.778" layer="27" rot="R270" display="off"/>
</element>
<element name="CHARGER" library="SparkFun-IC-Power" library_urn="urn:adsk.eagle:library:526" package="SOT23-5" package3d_urn="urn:adsk.eagle:package:39060/1" value="MCP73831" x="30.48" y="44.45" rot="R90">
<attribute name="PROD_ID" value="IC-09995" x="30.48" y="44.45" size="1.778" layer="27" rot="R90" display="off"/>
</element>
<element name="D1" library="SparkFun-LED" library_urn="urn:adsk.eagle:library:529" package="LED-0603" package3d_urn="urn:adsk.eagle:package:39354/1" value="" x="34.29" y="34.29"/>
<element name="R1" library="SparkFun-Resistors" library_urn="urn:adsk.eagle:library:532" package="0603" package3d_urn="urn:adsk.eagle:package:39650/1" value="2.0k" x="30.48" y="40.64" rot="R180">
<attribute name="PROD_ID" value="RES-08296" x="30.48" y="40.64" size="1.778" layer="27" rot="R180" display="off"/>
</element>
<element name="R2" library="SparkFun-Resistors" library_urn="urn:adsk.eagle:library:532" package="0603" package3d_urn="urn:adsk.eagle:package:39650/1" value="470" x="35.56" y="39.37" rot="R270">
<attribute name="PROD_ID" value="RES-07869" x="35.56" y="39.37" size="1.778" layer="27" rot="R270" display="off"/>
</element>
<element name="STACK" library="SparkFun-Connectors" library_urn="urn:adsk.eagle:library:513" package="1X08" package3d_urn="urn:adsk.eagle:package:38138/1" value="" x="30.48" y="50.8" smashed="yes">
<attribute name="NAME" x="28.829" y="49.53" size="0.6096" layer="25" font="vector" ratio="20" rot="R90"/>
<attribute name="PROD_ID" value="CONN-08438" x="30.48" y="50.8" size="1.778" layer="27" display="off"/>
<attribute name="VALUE" x="29.21" y="48.768" size="0.6096" layer="27" font="vector" ratio="20"/>
</element>
<element name="U$1" library="AP2112M" package="AP2112M" value="AP2112M" x="44.45" y="37.084" rot="R90"/>
<element name="D2" library="Seeed-Diode" library_urn="urn:adsk.eagle:library:467" package="SOD-123" package3d_urn="urn:adsk.eagle:package:32510/1" value="MBR120" x="38.1" y="30.48" rot="R90">
<attribute name="MPN" value="MMSD4148" x="38.1" y="30.48" size="1.778" layer="27" rot="R90" display="off"/>
</element>
</elements>
<signals>
<signal name="GROUND">
<contactref element="C2" pad="1"/>
<contactref element="C1" pad="2"/>
<contactref element="C3" pad="1"/>
<contactref element="C4" pad="2"/>
<contactref element="BATT" pad="2"/>
<wire x1="28.79" y1="36.83" x2="31.33" y2="39.37" width="0.1524" layer="1"/>
<wire x1="51.6199" y1="38.52" x2="52.07" y2="38.52" width="0.1524" layer="1"/>
<contactref element="R1" pad="1"/>
<wire x1="31.33" y1="40.64" x2="30.48" y2="41.49" width="0.1524" layer="1"/>
<wire x1="30.48" y1="41.49" x2="30.48" y2="43.18" width="0.1524" layer="1"/>
<contactref element="CHARGER" pad="2"/>
<wire x1="30.48" y1="43.18" x2="30.5101" y2="43.18" width="0.1524" layer="1"/>
<wire x1="31.33" y1="39.37" x2="31.33" y2="40.64" width="0.1524" layer="1"/>
<wire x1="38.1" y1="24.13" x2="38.1" y2="21.59" width="0.1524" layer="1"/>
<wire x1="38.1" y1="21.59" x2="40.64" y2="21.59" width="0.1524" layer="1"/>
<wire x1="52.07" y1="33.02" x2="52.07" y2="38.52" width="0.1524" layer="1"/>
<wire x1="40.64" y1="21.59" x2="52.07" y2="33.02" width="0.1524" layer="1"/>
<wire x1="31.7801" y1="44.45" x2="30.734" y2="44.45" width="0.1524" layer="1"/>
<wire x1="30.734" y1="44.45" x2="30.48" y2="44.196" width="0.1524" layer="1"/>
<wire x1="30.48" y1="44.196" x2="30.48" y2="43.18" width="0.1524" layer="1"/>
<wire x1="31.7801" y1="44.45" x2="34.29" y2="44.45" width="0.1524" layer="1"/>
<wire x1="34.29" y1="44.45" x2="35.14" y2="43.6" width="0.1524" layer="1"/>
<wire x1="35.14" y1="43.6" x2="36.83" y2="43.6" width="0.1524" layer="1"/>
<wire x1="36.83" y1="43.6" x2="36.913" y2="43.517" width="0.1524" layer="1"/>
<contactref element="U$1" pad="7"/>
<contactref element="U$1" pad="6"/>
<contactref element="STACK" pad="8"/>
<wire x1="36.913" y1="43.517" x2="39.878" y2="40.552" width="0.1524" layer="1"/>
<wire x1="48.26" y1="50.8" x2="44.958" y2="47.498" width="0.1524" layer="1"/>
<wire x1="44.958" y1="47.498" x2="44.792" y2="47.498" width="0.1524" layer="1"/>
<wire x1="44.792" y1="47.498" x2="40.811" y2="43.517" width="0.1524" layer="1"/>
<wire x1="40.811" y1="43.517" x2="36.913" y2="43.517" width="0.1524" layer="1"/>
<wire x1="39.878" y1="40.552" x2="39.878" y2="37.846" width="0.1524" layer="1"/>
<wire x1="39.878" y1="37.846" x2="41.8255" y2="37.846" width="0.1524" layer="1"/>
<wire x1="41.8255" y1="37.846" x2="41.9525" y2="37.719" width="0.1524" layer="1"/>
<wire x1="41.9525" y1="37.719" x2="41.9525" y2="36.449" width="0.1524" layer="1"/>
<wire x1="52.07" y1="38.52" x2="52.832" y2="39.282" width="0.1524" layer="1"/>
<wire x1="52.832" y1="39.282" x2="52.832" y2="49.53" width="0.1524" layer="1"/>
<wire x1="44.45" y1="47.84" x2="44.792" y2="47.498" width="0.1524" layer="1"/>
<wire x1="44.45" y1="52.578" x2="44.45" y2="47.84" width="0.1524" layer="1"/>
<wire x1="52.832" y1="49.53" x2="49.276" y2="53.086" width="0.1524" layer="1"/>
<wire x1="49.276" y1="53.086" x2="44.958" y2="53.086" width="0.1524" layer="1"/>
<wire x1="44.958" y1="53.086" x2="44.45" y2="52.578" width="0.1524" layer="1"/>
</signal>
<signal name="SDA">
<contactref element="STACK" pad="4"/>
</signal>
<signal name="SCL">
<contactref element="STACK" pad="3"/>
</signal>
<signal name="VREG">
<contactref element="C4" pad="1"/>
<contactref element="U$1" pad="1"/>
<contactref element="STACK" pad="7"/>
<wire x1="45.72" y1="50.8" x2="47.244" y2="52.324" width="0.1524" layer="1"/>
<wire x1="47.244" y1="52.324" x2="49.022" y2="52.324" width="0.1524" layer="1"/>
<wire x1="49.022" y1="52.324" x2="52.07" y2="49.276" width="0.1524" layer="1"/>
<wire x1="52.07" y1="49.276" x2="52.07" y2="40.22" width="0.1524" layer="1"/>
<wire x1="52.07" y1="40.22" x2="51.728" y2="39.878" width="0.1524" layer="1"/>
<wire x1="51.728" y1="39.878" x2="50.038" y2="39.878" width="0.1524" layer="1"/>
<wire x1="50.038" y1="39.878" x2="49.022" y2="38.862" width="0.1524" layer="1"/>
<wire x1="49.022" y1="38.862" x2="49.022" y2="35.814" width="0.1524" layer="1"/>
<wire x1="49.022" y1="35.814" x2="48.387" y2="35.179" width="0.1524" layer="1"/>
<wire x1="48.387" y1="35.179" x2="46.9475" y2="35.179" width="0.1524" layer="1"/>
</signal>
<signal name="VEXT">
<contactref element="CHARGER" pad="4"/>
<contactref element="C1" pad="1"/>
<contactref element="D1" pad="A"/>
<wire x1="29.1799" y1="45.4" x2="32.0399" y2="48.26" width="0.1524" layer="1"/>
<wire x1="27.94" y1="44.1601" x2="29.1799" y2="45.4" width="0.1524" layer="1"/>
<wire x1="27.09" y1="36.83" x2="27.94" y2="37.68" width="0.1524" layer="1"/>
<wire x1="27.94" y1="37.68" x2="27.94" y2="44.1601" width="0.1524" layer="1"/>
<wire x1="33.413" y1="34.29" x2="32.143" y2="35.56" width="0.1524" layer="1"/>
<wire x1="32.143" y1="35.56" x2="27.94" y2="35.56" width="0.1524" layer="1"/>
<wire x1="27.94" y1="35.56" x2="27.09" y2="36.41" width="0.1524" layer="1"/>
<wire x1="27.09" y1="36.41" x2="27.09" y2="36.83" width="0.1524" layer="1"/>
<wire x1="32.0399" y1="48.26" x2="39.37" y2="48.26" width="0.1524" layer="1"/>
<wire x1="40.64" y1="49.53" x2="39.37" y2="48.26" width="0.1524" layer="1"/>
<contactref element="STACK" pad="5"/>
<wire x1="40.64" y1="50.8" x2="40.64" y2="49.53" width="0.1524" layer="1"/>
<contactref element="C3" pad="2"/>
<contactref element="U$1" pad="8"/>
<contactref element="D2" pad="-"/>
<wire x1="41.9525" y1="35.179" x2="38.9045" y2="32.131" width="0.1524" layer="1"/>
<wire x1="38.9045" y1="32.131" x2="38.1" y2="32.131" width="0.1524" layer="1"/>
<wire x1="33.413" y1="34.29" x2="33.413" y2="32.627" width="0.1524" layer="1"/>
<wire x1="33.909" y1="32.131" x2="38.1" y2="32.131" width="0.1524" layer="1"/>
<wire x1="33.413" y1="32.627" x2="33.909" y2="32.131" width="0.1524" layer="1"/>
<wire x1="36.83" y1="45.3" x2="39.37" y2="47.84" width="0.1524" layer="1"/>
<wire x1="39.37" y1="47.84" x2="39.37" y2="48.26" width="0.1524" layer="1"/>
</signal>
<signal name="TBA1">
<contactref element="STACK" pad="1"/>
</signal>
<signal name="TBA2">
<contactref element="STACK" pad="2"/>
</signal>
<signal name="PROG">
<contactref element="CHARGER" pad="5"/>
<contactref element="R1" pad="2"/>
<wire x1="29.1799" y1="43.5" x2="29.1799" y2="41.6861" width="0.1524" layer="1"/>
<wire x1="29.63" y1="41.236" x2="29.63" y2="40.64" width="0.1524" layer="1"/>
<wire x1="29.1799" y1="41.6861" x2="29.63" y2="41.236" width="0.1524" layer="1"/>
</signal>
<signal name="N$3">
<contactref element="D1" pad="C"/>
<contactref element="R2" pad="2"/>
<wire x1="35.167" y1="34.29" x2="35.56" y2="34.683" width="0.1524" layer="1"/>
<wire x1="35.56" y1="34.683" x2="35.56" y2="38.52" width="0.1524" layer="1"/>
</signal>
<signal name="STAT">
<contactref element="R2" pad="1"/>
<contactref element="CHARGER" pad="1"/>
<wire x1="35.56" y1="40.22" x2="32.28" y2="43.5" width="0.1524" layer="1"/>
<wire x1="32.28" y1="43.5" x2="31.7801" y2="43.5" width="0.1524" layer="1"/>
</signal>
<signal name="VBAT">
<contactref element="CHARGER" pad="3"/>
<contactref element="C2" pad="2"/>
<contactref element="BATT" pad="1"/>
<wire x1="31.8801" y1="45.3" x2="31.7801" y2="45.4" width="0.1524" layer="1"/>
<wire x1="42.418" y1="53.086" x2="43.18" y2="52.324" width="0.1524" layer="1"/>
<wire x1="42.418" y1="53.086" x2="29.972" y2="53.086" width="0.1524" layer="1"/>
<wire x1="29.972" y1="53.086" x2="25.654" y2="48.768" width="0.1524" layer="1"/>
<wire x1="25.654" y1="48.768" x2="25.654" y2="32.512" width="0.1524" layer="1"/>
<wire x1="25.654" y1="32.512" x2="31.496" y2="26.67" width="0.1524" layer="1"/>
<wire x1="31.496" y1="26.67" x2="38.1" y2="26.67" width="0.1524" layer="1"/>
<wire x1="38.1" y1="26.67" x2="40.513" y2="24.257" width="0.1524" layer="1"/>
<wire x1="40.513" y1="24.257" x2="40.64" y2="24.13" width="0.1524" layer="1"/>
<wire x1="43.092" y1="50.712" x2="43.092" y2="47.498" width="0.1524" layer="1"/>
<contactref element="STACK" pad="6"/>
<wire x1="43.18" y1="52.324" x2="43.18" y2="50.8" width="0.1524" layer="1"/>
<wire x1="43.18" y1="50.8" x2="43.092" y2="50.712" width="0.1524" layer="1"/>
<contactref element="U$1" pad="5"/>
<wire x1="41.9525" y1="38.989" x2="43.561" y2="38.989" width="0.1524" layer="1"/>
<wire x1="43.561" y1="38.989" x2="44.196" y2="38.354" width="0.1524" layer="1"/>
<contactref element="D2" pad="+"/>
<wire x1="38.1" y1="28.829" x2="38.1" y2="26.67" width="0.1524" layer="1"/>
<wire x1="40.513" y1="24.511" x2="40.513" y2="24.257" width="0.1524" layer="1"/>
<wire x1="44.196" y1="38.354" x2="44.196" y2="28.194" width="0.1524" layer="1"/>
<wire x1="44.196" y1="28.194" x2="40.513" y2="24.511" width="0.1524" layer="1"/>
<wire x1="31.7801" y1="45.4" x2="34.61" y2="45.4" width="0.1524" layer="1"/>
<wire x1="34.61" y1="45.4" x2="35.56" y2="44.45" width="0.1524" layer="1"/>
<wire x1="35.56" y1="44.45" x2="40.044" y2="44.45" width="0.1524" layer="1"/>
<wire x1="40.044" y1="44.45" x2="43.092" y2="47.498" width="0.1524" layer="1"/>
</signal>
</signals>
</board>
</drawing>
<compatibility>
<note version="8.2" severity="warning">
Since Version 8.2, EAGLE supports online libraries. The ids
of those online libraries will not be understood (or retained)
with this version.
</note>
<note version="8.3" severity="warning">
Since Version 8.3, EAGLE supports URNs for individual library
assets (packages, symbols, and devices). The URNs of those assets
will not be understood (or retained) with this version.
</note>
<note version="8.3" severity="warning">
Since Version 8.3, EAGLE supports the association of 3D packages
with devices in libraries, schematics, and board files. Those 3D
packages will not be understood (or retained) with this version.
</note>
</compatibility>
</eagle>
